<svg width="121" height="10" viewBox="0 0 121 10" fill="none" xmlns="http://www.w3.org/2000/svg">
<path d="M4.58147 9.036C3.79747 9.036 3.08147 8.848 2.43347 8.472C1.79347 8.096 1.28547 7.584 0.909465 6.936C0.541465 6.288 0.357465 5.576 0.357465 4.8C0.357465 4.024 0.541465 3.312 0.909465 2.664C1.28547 2.016 1.79747 1.504 2.44547 1.128C3.09347 0.752 3.81347 0.564 4.60547 0.564C5.39747 0.564 6.11347 0.748 6.75347 1.116C7.40147 1.484 7.90947 1.992 8.27747 2.64C8.64547 3.28 8.82947 3.992 8.82947 4.776C8.82947 5.56 8.64147 6.28 8.26547 6.936C7.88947 7.584 7.37747 8.096 6.72947 8.472C6.08147 8.848 5.36547 9.036 4.58147 9.036ZM4.58147 8.256C5.22147 8.256 5.80147 8.104 6.32147 7.8C6.84947 7.488 7.26147 7.068 7.55747 6.54C7.86147 6.004 8.01347 5.416 8.01347 4.776C8.01347 4.128 7.86547 3.544 7.56947 3.024C7.28147 2.504 6.87747 2.096 6.35747 1.8C5.83747 1.496 5.25347 1.344 4.60547 1.344C3.95747 1.344 3.37347 1.496 2.85347 1.8C2.33347 2.104 1.92547 2.52 1.62947 3.048C1.33347 3.576 1.18547 4.16 1.18547 4.8C1.18547 5.44 1.33347 6.024 1.62947 6.552C1.92547 7.08 2.32947 7.496 2.84147 7.8C3.36147 8.104 3.94147 8.256 4.58147 8.256ZM4.73747 7.224C4.24947 7.224 3.80947 7.12 3.41747 6.912C3.03347 6.704 2.72947 6.416 2.50547 6.048C2.28947 5.68 2.18147 5.264 2.18147 4.8C2.18147 4.336 2.28947 3.92 2.50547 3.552C2.72947 3.184 3.03347 2.896 3.41747 2.688C3.80947 2.48 4.24947 2.376 4.73747 2.376C5.20947 2.376 5.62547 2.48 5.98547 2.688C6.34547 2.888 6.61347 3.164 6.78947 3.516L5.70947 4.152C5.49347 3.776 5.16547 3.588 4.72547 3.588C4.40547 3.588 4.13347 3.7 3.90947 3.924C3.69347 4.14 3.58547 4.432 3.58547 4.8C3.58547 5.168 3.69347 5.464 3.90947 5.688C4.13347 5.904 4.40547 6.012 4.72547 6.012C5.16547 6.012 5.49347 5.824 5.70947 5.448L6.78947 6.072C6.61347 6.432 6.34547 6.716 5.98547 6.924C5.62547 7.124 5.20947 7.224 4.73747 7.224ZM21.7818 4.668H23.5578V8.076C23.1018 8.42 22.5738 8.684 21.9738 8.868C21.3738 9.052 20.7698 9.144 20.1618 9.144C19.2898 9.144 18.5058 8.96 17.8098 8.592C17.1138 8.216 16.5658 7.7 16.1658 7.044C15.7738 6.38 15.5778 5.632 15.5778 4.8C15.5778 3.968 15.7738 3.224 16.1658 2.568C16.5658 1.904 17.1178 1.388 17.8218 1.02C18.5258 0.644 19.3178 0.456 20.1978 0.456C20.9338 0.456 21.6018 0.58 22.2018 0.827999C22.8018 1.076 23.3058 1.436 23.7138 1.908L22.4658 3.06C21.8658 2.428 21.1418 2.112 20.2938 2.112C19.7578 2.112 19.2818 2.224 18.8658 2.448C18.4498 2.672 18.1258 2.988 17.8938 3.396C17.6618 3.804 17.5458 4.272 17.5458 4.8C17.5458 5.32 17.6618 5.784 17.8938 6.192C18.1258 6.6 18.4458 6.92 18.8538 7.152C19.2698 7.376 19.7418 7.488 20.2698 7.488C20.8298 7.488 21.3338 7.368 21.7818 7.128V4.668ZM33.0676 7.44V9H26.5636V0.599999H32.9116V2.16H28.4956V3.984H32.3956V5.496H28.4956V7.44H33.0676ZM43.4584 9L43.4464 3.96L40.9744 8.112H40.0984L37.6384 4.068V9H35.8144V0.599999H37.4224L40.5664 5.82L43.6624 0.599999H45.2584L45.2824 9H43.4584ZM56.7098 0.599999C57.4538 0.599999 58.0978 0.724 58.6418 0.972C59.1938 1.22 59.6178 1.572 59.9138 2.028C60.2098 2.484 60.3578 3.024 60.3578 3.648C60.3578 4.264 60.2098 4.804 59.9138 5.268C59.6178 5.724 59.1938 6.076 58.6418 6.324C58.0978 6.564 57.4538 6.684 56.7098 6.684H55.0178V9H53.0738V0.599999H56.7098ZM56.6018 5.1C57.1858 5.1 57.6298 4.976 57.9338 4.728C58.2378 4.472 58.3898 4.112 58.3898 3.648C58.3898 3.176 58.2378 2.816 57.9338 2.568C57.6298 2.312 57.1858 2.184 56.6018 2.184H55.0178V5.1H56.6018ZM68.0557 7.2H64.1557L63.4117 9H61.4197L65.1637 0.599999H67.0837L70.8397 9H68.7997L68.0557 7.2ZM67.4437 5.724L66.1117 2.508L64.7797 5.724H67.4437ZM72.9113 0.599999H74.8553V9H72.9113V0.599999ZM85.7527 0.599999V9H84.1567L79.9687 3.9V9H78.0487V0.599999H79.6567L83.8327 5.7V0.599999H85.7527ZM90.6802 2.184H87.9922V0.599999H95.3122V2.184H92.6242V9H90.6802V2.184ZM106.177 9.144C105.321 9.144 104.545 8.96 103.849 8.592C103.161 8.216 102.617 7.7 102.217 7.044C101.825 6.38 101.629 5.632 101.629 4.8C101.629 3.968 101.825 3.224 102.217 2.568C102.617 1.904 103.161 1.388 103.849 1.02C104.545 0.644 105.325 0.456 106.189 0.456C106.917 0.456 107.573 0.584 108.157 0.84C108.749 1.096 109.245 1.464 109.645 1.944L108.397 3.096C107.829 2.44 107.125 2.112 106.285 2.112C105.765 2.112 105.301 2.228 104.893 2.46C104.485 2.684 104.165 3 103.933 3.408C103.709 3.816 103.597 4.28 103.597 4.8C103.597 5.32 103.709 5.784 103.933 6.192C104.165 6.6 104.485 6.92 104.893 7.152C105.301 7.376 105.765 7.488 106.285 7.488C107.125 7.488 107.829 7.156 108.397 6.492L109.645 7.644C109.245 8.132 108.749 8.504 108.157 8.76C107.565 9.016 106.905 9.144 106.177 9.144ZM116.05 9.144C115.178 9.144 114.39 8.956 113.686 8.58C112.99 8.204 112.442 7.688 112.042 7.032C111.65 6.368 111.454 5.624 111.454 4.8C111.454 3.976 111.65 3.236 112.042 2.58C112.442 1.916 112.99 1.396 113.686 1.02C114.39 0.644 115.178 0.456 116.05 0.456C116.922 0.456 117.706 0.644 118.402 1.02C119.098 1.396 119.646 1.916 120.046 2.58C120.446 3.236 120.646 3.976 120.646 4.8C120.646 5.624 120.446 6.368 120.046 7.032C119.646 7.688 119.098 8.204 118.402 8.58C117.706 8.956 116.922 9.144 116.05 9.144ZM116.05 7.488C116.546 7.488 116.994 7.376 117.394 7.152C117.794 6.92 118.106 6.6 118.33 6.192C118.562 5.784 118.678 5.32 118.678 4.8C118.678 4.28 118.562 3.816 118.33 3.408C118.106 3 117.794 2.684 117.394 2.46C116.994 2.228 116.546 2.112 116.05 2.112C115.554 2.112 115.106 2.228 114.706 2.46C114.306 2.684 113.99 3 113.758 3.408C113.534 3.816 113.422 4.28 113.422 4.8C113.422 5.32 113.534 5.784 113.758 6.192C113.99 6.6 114.306 6.92 114.706 7.152C115.106 7.376 115.554 7.488 116.05 7.488Z" fill="white"/>
</svg>

